TURFIO_PROTO_Talk_To_LMK01010/.Xil/Vivado-35872-DESKTOP-0RQFACS/hw_ila_data_1/zip_work/waveform.vcd
$date
        2022-Oct-12 11:46:56
$end
$version
        Vivado v2020.2 (64-bit)
$end
$timescale
        1ps
$end
$scope module dut $end
$var reg 1 " clk20MHz $end
$var reg 1 # Q2 $end
$var reg 1 $ _TRIGGER $end
$var reg 1 % _WINDOW $end
$var reg 1 & _GAP $end
$upscope $end
$enddefinitions $end
#0
$dumpvars
0"
0#
0$
1%
0&
$end
#1
1"
1#
#4
0"
0#
#6
1"
#9
0"
#11
1"
#14
0"
#16
1"
#19
0"
#21
1"
#24
0"
#26
1"
#29
0"
#31
1"
#34
0"
#36
1"
#39
0"
#41
1"
#44
0"
#46
1"
#49
0"
#51
1"
1#
#54
0"
0#
#56
1"
#59
0"
#61
1"
#64
0"
#66
1"
#69
0"
#71
1"
#74
0"
#76
1"
#79
0"
#81
1"
#84
0"
#86
1"
#89
0"
#91
1"
#94
0"
#96
1"
#99
0"
#101
1"
1#
#104
0"
0#
#106
1"
#109
0"
#111
1"
#114
0"
#116
1"
#119
0"
#121
1"
#124
0"
#126
1"
#129
0"
#131
1"
#134
0"
#136
1"
#139
0"
#141
1"
#144
0"
#146
1"
#149
0"
#151
1"
1#
#154
0"
0#
#156
1"
#159
0"
#161
1"
#164
0"
#166
1"
#169
0"
#171
1"
#174
0"
#176
1"
#179
0"
#181
1"
#184
0"
#186
1"
#189
0"
#191
1"
#194
0"
#196
1"
#199
0"
#201
1"
1#
#204
0"
0#
#206
1"
#209
0"
#211
1"
#214
0"
#216
1"
#219
0"
#221
1"
#224
0"
#226
1"
#229
0"
#231
1"
#234
0"
#236
1"
#239
0"
#241
1"
#244
0"
#246
1"
#249
0"
#251
1"
1#
#254
0"
0#
#256
1"
#259
0"
#261
1"
#264
0"
#266
1"
#269
0"
#271
1"
#274
0"
#276
1"
#279
0"
#281
1"
#284
0"
#286
1"
#289
0"
#291
1"
#294
0"
#296
1"
#299
0"
#301
1"
1#
#304
0"
0#
#306
1"
#309
0"
#311
1"
#314
0"
#316
1"
#319
0"
#321
1"
#324
0"
#326
1"
#329
0"
#331
1"
#334
0"
#336
1"
#339
0"
#341
1"
#344
0"
#346
1"
#349
0"
#351
1"
1#
#354
0"
0#
#356
1"
#359
0"
#361
1"
#364
0"
#366
1"
#369
0"
#371
1"
#374
0"
#376
1"
#379
0"
#381
1"
#384
0"
#386
1"
#389
0"
#391
1"
#394
0"
#396
1"
#399
0"
#401
1"
1#
#404
0"
0#
#406
1"
#409
0"
#411
1"
#414
0"
#416
1"
#419
0"
#421
1"
#424
0"
#426
1"
#429
0"
#431
1"
#434
0"
#436
1"
#439
0"
#441
1"
#444
0"
#446
1"
#449
0"
#451
1"
1#
#454
0"
0#
#456
1"
#459
0"
#461
1"
#464
0"
#466
1"
#469
0"
#471
1"
#474
0"
#476
1"
#479
0"
#481
1"
#484
0"
#486
1"
#489
0"
#491
1"
#494
0"
#496
1"
#499
0"
#501
1"
1#
#504
0"
0#
#506
1"
#509
0"
#511
1"
#514
0"
#516
1"
#519
0"
#521
1"
#524
0"
#526
1"
#529
0"
#531
1"
#534
0"
#536
1"
#539
0"
#541
1"
#544
0"
#546
1"
#549
0"
#551
1"
1#
#554
0"
0#
#556
1"
#559
0"
#561
1"
#564
0"
#566
1"
#569
0"
#571
1"
#574
0"
#576
1"
#579
0"
#581
1"
#584
0"
#586
1"
#589
0"
#591
1"
#594
0"
#596
1"
#599
0"
#601
1"
1#
#604
0"
0#
#606
1"
#609
0"
#611
1"
#614
0"
#616
1"
#619
0"
#621
1"
#624
0"
#626
1"
#629
0"
#631
1"
#634
0"
#636
1"
#639
0"
#641
1"
#644
0"
#646
1"
#649
0"
#651
1"
1#
#654
0"
0#
#656
1"
#659
0"
#661
1"
#664
0"
#666
1"
#669
0"
#671
1"
#674
0"
#676
1"
#679
0"
#681
1"
#684
0"
#686
1"
#689
0"
#691
1"
#694
0"
#696
1"
#699
0"
#701
1"
1#
#704
0"
0#
#706
1"
#709
0"
#711
1"
#714
0"
#716
1"
#719
0"
#721
1"
#724
0"
#726
1"
#729
0"
#731
1"
#734
0"
#736
1"
#739
0"
#741
1"
#744
0"
#746
1"
#749
0"
#751
1"
1#
#754
0"
0#
#756
1"
#759
0"
#761
1"
#764
0"
#766
1"
#769
0"
#771
1"
#774
0"
#776
1"
#779
0"
#781
1"
#784
0"
#786
1"
#789
0"
#791
1"
#794
0"
#796
1"
#799
0"
#801
1"
1#
#804
0"
0#
#806
1"
#809
0"
#811
1"
#814
0"
#816
1"
#819
0"
#821
1"
#824
0"
#826
1"
#829
0"
#831
1"
#834
0"
#836
1"
#839
0"
#841
1"
#844
0"
#846
1"
#849
0"
#851
1"
1#
#854
0"
0#
#856
1"
#859
0"
#861
1"
#864
0"
#866
1"
#869
0"
#871
1"
#874
0"
#876
1"
#879
0"
#881
1"
#884
0"
#886
1"
#889
0"
#891
1"
#894
0"
#896
1"
#899
0"
#901
1"
1#
#904
0"
0#
#906
1"
#909
0"
#911
1"
#914
0"
#916
1"
#919
0"
#921
1"
#924
0"
#926
1"
#929
0"
#931
1"
#934
0"
#936
1"
#939
0"
#941
1"
#944
0"
#946
1"
#949
0"
#951
1"
1#
#954
0"
0#
#956
1"
#959
0"
#961
1"
#964
0"
#966
1"
#969
0"
#971
1"
#974
0"
#976
1"
#979
0"
#981
1"
#984
0"
#986
1"
#989
0"
#991
1"
#994
0"
#996
1"
#999
0"
#1001
1"
1#
#1004
0"
0#
#1006
1"
#1009
0"
#1011
1"
#1014
0"
#1016
1"
#1019
0"
#1021
1"
#1024
0"
#1026
1"
#1029
0"
#1031
1"
#1034
0"
#1036
1"
#1039
0"
#1041
1"
#1044
0"
#1046
1"
#1049
0"
#1051
1"
1#
#1054
0"
0#
#1056
1"
#1059
0"
#1061
1"
#1064
0"
#1066
1"
#1069
0"
#1071
1"
#1074
0"
#1076
1"
#1079
0"
#1081
1"
#1084
0"
#1086
1"
#1089
0"
#1091
1"
#1094
0"
#1096
1"
#1099
0"
#1101
1"
1#
#1104
0"
0#
#1106
1"
#1109
0"
#1111
1"
#1114
0"
#1116
1"
#1119
0"
#1121
1"
#1124
0"
#1126
1"
#1129
0"
#1131
1"
#1134
0"
#1136
1"
#1139
0"
#1141
1"
#1144
0"
#1146
1"
#1149
0"
#1151
1"
1#
#1154
0"
0#
#1156
1"
#1159
0"
#1161
1"
#1164
0"
#1166
1"
#1169
0"
#1171
1"
#1174
0"
#1176
1"
#1179
0"
#1181
1"
#1184
0"
#1186
1"
#1189
0"
#1191
1"
#1194
0"
#1196
1"
#1199
0"
#1201
1"
1#
#1204
0"
0#
#1206
1"
#1209
0"
#1211
1"
#1214
0"
#1216
1"
#1219
0"
#1221
1"
#1224
0"
#1226
1"
#1229
0"
#1231
1"
#1234
0"
#1236
1"
#1239
0"
#1241
1"
#1244
0"
#1246
1"
#1249
0"
#1251
1"
1#
#1254
0"
0#
#1256
1"
#1259
0"
#1261
1"
#1264
0"
#1266
1"
#1269
0"
#1271
1"
#1274
0"
#1276
1"
#1279
0"
#1281
1"
#1284
0"
#1286
1"
#1289
0"
#1291
1"
#1294
0"
#1296
1"
#1299
0"
#1301
1"
1#
#1304
0"
0#
#1306
1"
#1309
0"
#1311
1"
#1314
0"
#1316
1"
#1319
0"
#1321
1"
#1324
0"
#1326
1"
#1329
0"
#1331
1"
#1334
0"
#1336
1"
#1339
0"
#1341
1"
#1344
0"
#1346
1"
#1349
0"
#1351
1"
1#
#1354
0"
0#
#1356
1"
#1359
0"
#1361
1"
#1364
0"
#1366
1"
#1369
0"
#1371
1"
#1374
0"
#1376
1"
#1379
0"
#1381
1"
#1384
0"
#1386
1"
#1389
0"
#1391
1"
#1394
0"
#1396
1"
#1399
0"
#1401
1"
1#
#1404
0"
0#
#1406
1"
#1409
0"
#1411
1"
#1414
0"
#1416
1"
#1419
0"
#1421
1"
#1424
0"
#1426
1"
#1429
0"
#1431
1"
#1434
0"
#1436
1"
#1439
0"
#1441
1"
#1444
0"
#1446
1"
#1449
0"
#1451
1"
1#
#1454
0"
0#
#1456
1"
#1459
0"
#1461
1"
#1464
0"
#1466
1"
#1469
0"
#1471
1"
#1474
0"
#1476
1"
#1479
0"
#1481
1"
#1484
0"
#1486
1"
#1489
0"
#1491
1"
#1494
0"
#1496
1"
#1499
0"
#1501
1"
1#
#1504
0"
0#
#1506
1"
#1509
0"
#1511
1"
#1514
0"
#1516
1"
#1519
0"
#1521
1"
#1524
0"
#1526
1"
#1529
0"
#1531
1"
#1534
0"
#1536
1"
#1539
0"
#1541
1"
#1544
0"
#1546
1"
#1549
0"
#1551
1"
1#
#1554
0"
0#
#1556
1"
#1559
0"
#1561
1"
#1564
0"
#1566
1"
#1569
0"
#1571
1"
#1574
0"
#1576
1"
#1579
0"
#1581
1"
#1584
0"
#1586
1"
#1589
0"
#1591
1"
#1594
0"
#1596
1"
#1599
0"
#1601
1"
1#
#1604
0"
0#
#1606
1"
#1609
0"
#1611
1"
#1614
0"
#1616
1"
#1619
0"
#1621
1"
#1624
0"
#1626
1"
#1629
0"
#1631
1"
#1634
0"
#1636
1"
#1639
0"
#1641
1"
#1644
0"
#1646
1"
#1649
0"
#1651
1"
1#
#1654
0"
0#
#1656
1"
#1659
0"
#1661
1"
#1664
0"
#1666
1"
#1669
0"
#1671
1"
#1674
0"
#1676
1"
#1679
0"
#1681
1"
#1684
0"
#1686
1"
#1689
0"
#1691
1"
#1694
0"
#1696
1"
#1699
0"
#1701
1"
1#
#1704
0"
0#
#1706
1"
#1709
0"
#1711
1"
#1714
0"
#1716
1"
#1719
0"
#1721
1"
#1724
0"
#1726
1"
#1729
0"
#1731
1"
#1734
0"
#1736
1"
#1739
0"
#1741
1"
#1744
0"
#1746
1"
#1749
0"
#1751
1"
1#
#1754
0"
0#
#1756
1"
#1759
0"
#1761
1"
#1764
0"
#1766
1"
#1769
0"
#1771
1"
#1774
0"
#1776
1"
#1779
0"
#1781
1"
#1784
0"
#1786
1"
#1789
0"
#1791
1"
#1794
0"
#1796
1"
#1799
0"
#1801
1"
1#
#1804
0"
0#
#1806
1"
#1809
0"
#1811
1"
#1814
0"
#1816
1"
#1819
0"
#1821
1"
#1824
0"
#1826
1"
#1829
0"
#1831
1"
#1834
0"
#1836
1"
#1839
0"
#1841
1"
#1844
0"
#1846
1"
#1849
0"
#1851
1"
1#
#1854
0"
0#
#1856
1"
#1859
0"
#1861
1"
#1864
0"
#1866
1"
#1869
0"
#1871
1"
#1874
0"
#1876
1"
#1879
0"
#1881
1"
#1884
0"
#1886
1"
#1889
0"
#1891
1"
#1894
0"
#1896
1"
#1899
0"
#1901
1"
1#
#1904
0"
0#
#1906
1"
#1909
0"
#1911
1"
#1914
0"
#1916
1"
#1919
0"
#1921
1"
#1924
0"
#1926
1"
#1929
0"
#1931
1"
#1934
0"
#1936
1"
#1939
0"
#1941
1"
#1944
0"
#1946
1"
#1949
0"
#1951
1"
1#
#1954
0"
0#
#1956
1"
#1959
0"
#1961
1"
#1964
0"
#1966
1"
#1969
0"
#1971
1"
#1974
0"
#1976
1"
#1979
0"
#1981
1"
#1984
0"
#1986
1"
#1989
0"
#1991
1"
#1994
0"
#1996
1"
#1999
0"
#2001
1"
1#
#2004
0"
0#
#2006
1"
#2009
0"
#2011
1"
#2014
0"
#2016
1"
#2019
0"
#2021
1"
#2024
0"
#2026
1"
#2029
0"
#2031
1"
#2034
0"
#2036
1"
#2039
0"
#2041
1"
#2044
0"
#2046
1"
#2049
0"
#2051
1"
1#
#2054
0"
0#
#2056
1"
#2059
0"
#2061
1"
#2064
0"
#2066
1"
#2069
0"
#2071
1"
#2074
0"
#2076
1"
#2079
0"
#2081
1"
#2084
0"
#2086
1"
#2089
0"
#2091
1"
#2094
0"
#2096
1"
#2099
0"
#2101
1"
1#
#2104
0"
0#
#2106
1"
#2109
0"
#2111
1"
#2114
0"
#2116
1"
#2119
0"
#2121
1"
#2124
0"
#2126
1"
#2129
0"
#2131
1"
#2134
0"
#2136
1"
#2139
0"
#2141
1"
#2144
0"
#2146
1"
#2149
0"
#2151
1"
1#
#2154
0"
0#
#2156
1"
#2159
0"
#2161
1"
#2164
0"
#2166
1"
#2169
0"
#2171
1"
#2174
0"
#2176
1"
#2179
0"
#2181
1"
#2184
0"
#2186
1"
#2189
0"
#2191
1"
#2194
0"
#2196
1"
#2199
0"
#2201
1"
1#
#2204
0"
0#
#2206
1"
#2209
0"
#2211
1"
#2214
0"
#2216
1"
#2219
0"
#2221
1"
#2224
0"
#2226
1"
#2229
0"
#2231
1"
#2234
0"
#2236
1"
#2239
0"
#2241
1"
#2244
0"
#2246
1"
#2249
0"
#2251
1"
1#
#2254
0"
0#
#2256
1"
#2259
0"
#2261
1"
#2264
0"
#2266
1"
#2269
0"
#2271
1"
#2274
0"
#2276
1"
#2279
0"
#2281
1"
#2284
0"
#2286
1"
#2289
0"
#2291
1"
#2294
0"
#2296
1"
#2299
0"
#2301
1"
1#
#2304
0"
0#
#2306
1"
#2309
0"
#2311
1"
#2314
0"
#2316
1"
#2319
0"
#2321
1"
#2324
0"
#2326
1"
#2329
0"
#2331
1"
#2334
0"
#2336
1"
#2339
0"
#2341
1"
#2344
0"
#2346
1"
#2349
0"
#2351
1"
1#
#2354
0"
0#
#2356
1"
#2359
0"
#2361
1"
#2364
0"
#2366
1"
#2369
0"
#2371
1"
#2374
0"
#2376
1"
#2379
0"
#2381
1"
#2384
0"
#2386
1"
#2389
0"
#2391
1"
#2394
0"
#2396
1"
#2399
0"
#2401
1"
1#
#2404
0"
0#
#2406
1"
#2409
0"
#2411
1"
#2414
0"
#2416
1"
#2419
0"
#2421
1"
#2424
0"
#2426
1"
#2429
0"
#2431
1"
#2434
0"
#2436
1"
#2439
0"
#2441
1"
#2444
0"
#2446
1"
#2449
0"
#2451
1"
1#
#2454
0"
0#
#2456
1"
#2459
0"
#2461
1"
#2464
0"
#2466
1"
#2469
0"
#2471
1"
#2474
0"
#2476
1"
#2479
0"
#2481
1"
#2484
0"
#2486
1"
#2489
0"
#2491
1"
#2494
0"
#2496
1"
#2499
0"
#2501
1"
1#
#2504
0"
0#
#2506
1"
#2509
0"
#2511
1"
#2514
0"
#2516
1"
#2519
0"
#2521
1"
#2524
0"
#2526
1"
#2529
0"
#2531
1"
#2534
0"
#2536
1"
#2539
0"
#2541
1"
#2544
0"
#2546
1"
#2549
0"
#2551
1"
1#
#2554
0"
0#
#2556
1"
#2559
0"
#2561
1"
#2564
0"
#2566
1"
#2569
0"
#2571
1"
#2574
0"
#2576
1"
#2579
0"
#2581
1"
#2584
0"
#2586
1"
#2589
0"
#2591
1"
#2594
0"
#2596
1"
#2599
0"
#2601
1"
1#
#2604
0"
0#
#2606
1"
#2609
0"
#2611
1"
#2614
0"
#2616
1"
#2619
0"
#2621
1"
#2624
0"
#2626
1"
#2629
0"
#2631
1"
#2634
0"
#2636
1"
#2639
0"
#2641
1"
#2644
0"
#2646
1"
#2649
0"
#2651
1"
1#
#2654
0"
0#
#2656
1"
#2659
0"
#2661
1"
#2664
0"
#2666
1"
#2669
0"
#2671
1"
#2674
0"
#2676
1"
#2679
0"
#2681
1"
#2684
0"
#2686
1"
#2689
0"
#2691
1"
#2694
0"
#2696
1"
#2699
0"
#2701
1"
1#
#2704
0"
0#
#2706
1"
#2709
0"
#2711
1"
#2714
0"
#2716
1"
#2719
0"
#2721
1"
#2724
0"
#2726
1"
#2729
0"
#2731
1"
#2734
0"
#2736
1"
#2739
0"
#2741
1"
#2744
0"
#2746
1"
#2749
0"
#2751
1"
1#
#2754
0"
0#
#2756
1"
#2759
0"
#2761
1"
#2764
0"
#2766
1"
#2769
0"
#2771
1"
#2774
0"
#2776
1"
#2779
0"
#2781
1"
#2784
0"
#2786
1"
#2789
0"
#2791
1"
#2794
0"
#2796
1"
#2799
0"
#2801
1"
1#
#2804
0"
0#
#2806
1"
#2809
0"
#2811
1"
#2814
0"
#2816
1"
#2819
0"
#2821
1"
#2824
0"
#2826
1"
#2829
0"
#2831
1"
#2834
0"
#2836
1"
#2839
0"
#2841
1"
#2844
0"
#2846
1"
#2849
0"
#2851
1"
1#
#2854
0"
0#
#2856
1"
#2859
0"
#2861
1"
#2864
0"
#2866
1"
#2869
0"
#2871
1"
#2874
0"
#2876
1"
#2879
0"
#2881
1"
#2884
0"
#2886
1"
#2889
0"
#2891
1"
#2894
0"
#2896
1"
#2899
0"
#2901
1"
1#
#2904
0"
0#
#2906
1"
#2909
0"
#2911
1"
#2914
0"
#2916
1"
#2919
0"
#2921
1"
#2924
0"
#2926
1"
#2929
0"
#2931
1"
#2934
0"
#2936
1"
#2939
0"
#2941
1"
#2944
0"
#2946
1"
#2949
0"
#2951
1"
1#
#2954
0"
0#
#2956
1"
#2959
0"
#2961
1"
#2964
0"
#2966
1"
#2969
0"
#2971
1"
#2974
0"
#2976
1"
#2979
0"
#2981
1"
#2984
0"
#2986
1"
#2989
0"
#2991
1"
#2994
0"
#2996
1"
#2999
0"
#3001
1"
1#
#3004
0"
0#
#3006
1"
#3009
0"
#3011
1"
#3014
0"
#3016
1"
#3019
0"
#3021
1"
#3024
0"
#3026
1"
#3029
0"
#3031
1"
#3034
0"
#3036
1"
#3039
0"
#3041
1"
#3044
0"
#3046
1"
#3049
0"
#3051
1"
1#
#3054
0"
0#
#3056
1"
#3059
0"
#3061
1"
#3064
0"
#3066
1"
#3069
0"
#3071
1"
#3074
0"
#3076
1"
#3079
0"
#3081
1"
#3084
0"
#3086
1"
#3089
0"
#3091
1"
#3094
0"
#3096
1"
#3099
0"
#3101
1"
1#
#3104
0"
0#
#3106
1"
#3109
0"
#3111
1"
#3114
0"
#3116
1"
#3119
0"
#3121
1"
#3124
0"
#3126
1"
#3129
0"
#3131
1"
#3134
0"
#3136
1"
#3139
0"
#3141
1"
#3144
0"
#3146
1"
#3149
0"
#3151
1"
1#
#3154
0"
0#
#3156
1"
#3159
0"
#3161
1"
#3164
0"
#3166
1"
#3169
0"
#3171
1"
#3174
0"
#3176
1"
#3179
0"
#3181
1"
#3184
0"
#3186
1"
#3189
0"
#3191
1"
#3194
0"
#3196
1"
#3199
0"
#3201
1"
1#
#3204
0"
0#
#3206
1"
#3209
0"
#3211
1"
#3214
0"
#3216
1"
#3219
0"
#3221
1"
#3224
0"
#3226
1"
#3229
0"
#3231
1"
#3234
0"
#3236
1"
#3239
0"
#3241
1"
#3244
0"
#3246
1"
#3249
0"
#3251
1"
1#
#3254
0"
0#
#3256
1"
#3259
0"
#3261
1"
#3264
0"
#3266
1"
#3269
0"
#3271
1"
#3274
0"
#3276
1"
#3279
0"
#3281
1"
#3284
0"
#3286
1"
#3289
0"
#3291
1"
#3294
0"
#3296
1"
#3299
0"
#3301
1"
1#
#3304
0"
0#
#3306
1"
#3309
0"
#3311
1"
#3314
0"
#3316
1"
#3319
0"
#3321
1"
#3324
0"
#3326
1"
#3329
0"
#3331
1"
#3334
0"
#3336
1"
#3339
0"
#3341
1"
#3344
0"
#3346
1"
#3349
0"
#3351
1"
1#
#3354
0"
0#
#3356
1"
#3359
0"
#3361
1"
#3364
0"
#3366
1"
#3369
0"
#3371
1"
#3374
0"
#3376
1"
#3379
0"
#3381
1"
#3384
0"
#3386
1"
#3389
0"
#3391
1"
#3394
0"
#3396
1"
#3399
0"
#3401
1"
1#
#3404
0"
0#
#3406
1"
#3409
0"
#3411
1"
#3414
0"
#3416
1"
#3419
0"
#3421
1"
#3424
0"
#3426
1"
#3429
0"
#3431
1"
#3434
0"
#3436
1"
#3439
0"
#3441
1"
#3444
0"
#3446
1"
#3449
0"
#3451
1"
1#
#3454
0"
0#
#3456
1"
#3459
0"
#3461
1"
#3464
0"
#3466
1"
#3469
0"
#3471
1"
#3474
0"
#3476
1"
#3479
0"
#3481
1"
#3484
0"
#3486
1"
#3489
0"
#3491
1"
#3494
0"
#3496
1"
#3499
0"
#3501
1"
1#
#3504
0"
0#
#3506
1"
#3509
0"
#3511
1"
#3514
0"
#3516
1"
#3519
0"
#3521
1"
#3524
0"
#3526
1"
#3529
0"
#3531
1"
#3534
0"
#3536
1"
#3539
0"
#3541
1"
#3544
0"
#3546
1"
#3549
0"
#3551
1"
1#
#3554
0"
0#
#3556
1"
#3559
0"
#3561
1"
#3564
0"
#3566
1"
#3569
0"
#3571
1"
#3574
0"
#3576
1"
#3579
0"
#3581
1"
#3584
0"
#3586
1"
#3589
0"
#3591
1"
#3594
0"
#3596
1"
#3599
0"
#3601
1"
1#
#3604
0"
0#
#3606
1"
#3609
0"
#3611
1"
#3614
0"
#3616
1"
#3619
0"
#3621
1"
#3624
0"
#3626
1"
#3629
0"
#3631
1"
#3634
0"
#3636
1"
#3639
0"
#3641
1"
#3644
0"
#3646
1"
#3649
0"
#3651
1"
1#
#3654
0"
0#
#3656
1"
#3659
0"
#3661
1"
#3664
0"
#3666
1"
#3669
0"
#3671
1"
#3674
0"
#3676
1"
#3679
0"
#3681
1"
#3684
0"
#3686
1"
#3689
0"
#3691
1"
#3694
0"
#3696
1"
#3699
0"
#3701
1"
1#
#3704
0"
0#
#3706
1"
#3709
0"
#3711
1"
#3714
0"
#3716
1"
#3719
0"
#3721
1"
#3724
0"
#3726
1"
#3729
0"
#3731
1"
#3734
0"
#3736
1"
#3739
0"
#3741
1"
#3744
0"
#3746
1"
#3749
0"
#3751
1"
1#
#3754
0"
0#
#3756
1"
#3759
0"
#3761
1"
#3764
0"
#3766
1"
#3769
0"
#3771
1"
#3774
0"
#3776
1"
#3779
0"
#3781
1"
#3784
0"
#3786
1"
#3789
0"
#3791
1"
#3794
0"
#3796
1"
#3799
0"
#3801
1"
1#
#3804
0"
0#
#3806
1"
#3809
0"
#3811
1"
#3814
0"
#3816
1"
#3819
0"
#3821
1"
#3824
0"
#3826
1"
#3829
0"
#3831
1"
#3834
0"
#3836
1"
#3839
0"
#3841
1"
#3844
0"
#3846
1"
#3849
0"
#3851
1"
1#
#3854
0"
0#
#3856
1"
#3859
0"
#3861
1"
#3864
0"
#3866
1"
#3869
0"
#3871
1"
#3874
0"
#3876
1"
#3879
0"
#3881
1"
#3884
0"
#3886
1"
#3889
0"
#3891
1"
#3894
0"
#3896
1"
#3899
0"
#3901
1"
1#
#3904
0"
0#
#3906
1"
#3909
0"
#3911
1"
#3914
0"
#3916
1"
#3919
0"
#3921
1"
#3924
0"
#3926
1"
#3929
0"
#3931
1"
#3934
0"
#3936
1"
#3939
0"
#3941
1"
#3944
0"
#3946
1"
#3949
0"
#3951
1"
1#
#3954
0"
0#
#3956
1"
#3959
0"
#3961
1"
#3964
0"
#3966
1"
#3969
0"
#3971
1"
#3974
0"
#3976
1"
#3979
0"
#3981
1"
#3984
0"
#3986
1"
#3989
0"
#3991
1"
#3994
0"
#3996
1"
#3999
0"
#4001
1"
1#
#4004
0"
0#
#4006
1"
#4009
0"
#4011
1"
#4014
0"
#4016
1"
#4019
0"
#4021
1"
#4024
0"
#4026
1"
#4029
0"
#4031
1"
#4034
0"
#4036
1"
#4039
0"
#4041
1"
#4044
0"
#4046
1"
#4049
0"
#4051
1"
1#
#4054
0"
0#
#4056
1"
#4059
0"
#4061
1"
#4064
0"
#4066
1"
#4069
0"
#4071
1"
#4074
0"
#4076
1"
#4079
0"
#4081
1"
#4084
0"
#4086
1"
#4089
0"
#4091
1"
#4094
0"
#4096
1"
#4099
0"
#4101
1"
1#
#4104
0"
0#
#4106
1"
#4109
0"
#4111
1"
#4114
0"
#4116
1"
#4119
0"
#4121
1"
#4124
0"
#4126
1"
#4129
0"
#4131
1"
#4134
0"
#4136
1"
#4139
0"
#4141
1"
#4144
0"
#4146
1"
#4149
0"
#4151
1"
1#
#4154
0"
0#
#4156
1"
#4159
0"
#4161
1"
#4164
0"
#4166
1"
#4169
0"
#4171
1"
#4174
0"
#4176
1"
#4179
0"
#4181
1"
#4184
0"
#4186
1"
#4189
0"
#4191
1"
#4194
0"
#4196
1"
#4199
0"
#4201
1"
1#
#4204
0"
0#
#4206
1"
#4209
0"
#4211
1"
#4214
0"
#4216
1"
#4219
0"
#4221
1"
#4224
0"
#4226
1"
#4229
0"
#4231
1"
#4234
0"
#4236
1"
#4239
0"
#4241
1"
#4244
0"
#4246
1"
#4249
0"
#4251
1"
1#
#4254
0"
0#
#4256
1"
#4259
0"
#4261
1"
#4264
0"
#4266
1"
#4269
0"
#4271
1"
#4274
0"
#4276
1"
#4279
0"
#4281
1"
#4284
0"
#4286
1"
#4289
0"
#4291
1"
#4294
0"
#4296
1"
#4299
0"
#4301
1"
1#
#4304
0"
0#
#4306
1"
#4309
0"
#4311
1"
#4314
0"
#4316
1"
#4319
0"
#4321
1"
#4324
0"
#4326
1"
#4329
0"
#4331
1"
#4334
0"
#4336
1"
#4339
0"
#4341
1"
#4344
0"
#4346
1"
#4349
0"
#4351
1"
1#
#4354
0"
0#
#4356
1"
#4359
0"
#4361
1"
#4364
0"
#4366
1"
#4369
0"
#4371
1"
#4374
0"
#4376
1"
#4379
0"
#4381
1"
#4384
0"
#4386
1"
#4389
0"
#4391
1"
#4394
0"
#4396
1"
#4399
0"
#4401
1"
1#
#4404
0"
0#
#4406
1"
#4409
0"
#4411
1"
#4414
0"
#4416
1"
#4419
0"
#4421
1"
#4424
0"
#4426
1"
#4429
0"
#4431
1"
#4434
0"
#4436
1"
#4439
0"
#4441
1"
#4444
0"
#4446
1"
#4449
0"
#4451
1"
1#
#4454
0"
0#
#4456
1"
#4459
0"
#4461
1"
#4464
0"
#4466
1"
#4469
0"
#4471
1"
#4474
0"
#4476
1"
#4479
0"
#4481
1"
#4484
0"
#4486
1"
#4489
0"
#4491
1"
#4494
0"
#4496
1"
#4499
0"
#4501
1"
1#
#4504
0"
0#
#4506
1"
#4509
0"
#4511
1"
#4514
0"
#4516
1"
#4519
0"
#4521
1"
#4524
0"
#4526
1"
#4529
0"
#4531
1"
#4534
0"
#4536
1"
#4539
0"
#4541
1"
#4544
0"
#4546
1"
#4549
0"
#4551
1"
1#
#4554
0"
0#
#4556
1"
#4559
0"
#4561
1"
#4564
0"
#4566
1"
#4569
0"
#4571
1"
#4574
0"
#4576
1"
#4579
0"
#4581
1"
#4584
0"
#4586
1"
#4589
0"
#4591
1"
#4594
0"
#4596
1"
#4599
0"
#4601
1"
1#
#4604
0"
0#
#4606
1"
#4609
0"
#4611
1"
#4614
0"
#4616
1"
#4619
0"
#4621
1"
#4624
0"
#4626
1"
#4629
0"
#4631
1"
#4634
0"
#4636
1"
#4639
0"
#4641
1"
#4644
0"
#4646
1"
#4649
0"
#4651
1"
1#
#4654
0"
0#
#4656
1"
#4659
0"
#4661
1"
#4664
0"
#4666
1"
#4669
0"
#4671
1"
#4674
0"
#4676
1"
#4679
0"
#4681
1"
#4684
0"
#4686
1"
#4689
0"
#4691
1"
#4694
0"
#4696
1"
#4699
0"
#4701
1"
1#
#4704
0"
0#
#4706
1"
#4709
0"
#4711
1"
#4714
0"
#4716
1"
#4719
0"
#4721
1"
#4724
0"
#4726
1"
#4729
0"
#4731
1"
#4734
0"
#4736
1"
#4739
0"
#4741
1"
#4744
0"
#4746
1"
#4749
0"
#4751
1"
1#
#4754
0"
0#
#4756
1"
#4759
0"
#4761
1"
#4764
0"
#4766
1"
#4769
0"
#4771
1"
#4774
0"
#4776
1"
#4779
0"
#4781
1"
#4784
0"
#4786
1"
#4789
0"
#4791
1"
#4794
0"
#4796
1"
#4799
0"
#4801
1"
1#
#4804
0"
0#
#4806
1"
#4809
0"
#4811
1"
#4814
0"
#4816
1"
#4819
0"
#4821
1"
#4824
0"
#4826
1"
#4829
0"
#4831
1"
#4834
0"
#4836
1"
#4839
0"
#4841
1"
#4844
0"
#4846
1"
#4849
0"
#4851
1"
1#
#4854
0"
0#
#4856
1"
#4859
0"
#4861
1"
#4864
0"
#4866
1"
#4869
0"
#4871
1"
#4874
0"
#4876
1"
#4879
0"
#4881
1"
#4884
0"
#4886
1"
#4889
0"
#4891
1"
#4894
0"
#4896
1"
#4899
0"
#4901
1"
1#
#4904
0"
0#
#4906
1"
#4909
0"
#4911
1"
#4914
0"
#4916
1"
#4919
0"
#4921
1"
#4924
0"
#4926
1"
#4929
0"
#4931
1"
#4934
0"
#4936
1"
#4939
0"
#4941
1"
#4944
0"
#4946
1"
#4949
0"
#4951
1"
1#
#4954
0"
0#
#4956
1"
#4959
0"
#4961
1"
#4964
0"
#4966
1"
#4969
0"
#4971
1"
#4974
0"
#4976
1"
#4979
0"
#4981
1"
#4984
0"
#4986
1"
#4989
0"
#4991
1"
#4994
0"
#4996
1"
#4999
0"
#5001
1"
1#
#5004
0"
0#
#5006
1"
#5009
0"
#5011
1"
#5014
0"
#5016
1"
#5019
0"
#5021
1"
#5024
0"
#5026
1"
#5029
0"
#5031
1"
#5034
0"
#5036
1"
#5039
0"
#5041
1"
#5044
0"
#5046
1"
#5049
0"
#5051
1"
1#
#5054
0"
0#
#5056
1"
#5059
0"
#5061
1"
#5064
0"
#5066
1"
#5069
0"
#5071
1"
#5074
0"
#5076
1"
#5079
0"
#5081
1"
#5084
0"
#5086
1"
#5089
0"
#5091
1"
#5094
0"
#5096
1"
#5099
0"
#5101
1"
1#
#5104
0"
0#
#5106
1"
#5109
0"
#5111
1"
#5114
0"
#5116
1"
#5119
0"
#5121
1"
#5124
0"
#5126
1"
#5129
0"
#5131
1"
#5134
0"
#5136
1"
#5139
0"
#5141
1"
#5144
0"
#5146
1"
#5149
0"
#5151
1"
1#
#5154
0"
0#
#5156
1"
#5159
0"
#5161
1"
#5164
0"
#5166
1"
#5169
0"
#5171
1"
#5174
0"
#5176
1"
#5179
0"
